Business Analytics aplicado a datos bancarios
…
## Variables categóricas: job, marital, education, default, housing, loan, contact, month, poutcome, deposit

cat_summary <- bank |> 
  select(all_of(cat_vars)) |> 
  pivot_longer(everything(), names_to = "variable", values_to = "category") |> 
  count(variable, category, sort = TRUE) |> 
  group_by(variable) |> 
  mutate(prop = n / sum(n)) |> 
  ungroup()

cat_summary

## # A tibble: 46 × 4
##    variable  category      n  prop
##    <chr>     <fct>     <int> <dbl>
##  1 default   no        10994 0.985
##  2 loan      no         9702 0.869
##  3 poutcome  unknown    8326 0.746
##  4 contact   cellular   8042 0.720
##  5 marital   married    6351 0.569
##  6 housing   no         5881 0.527
##  7 deposit   no         5873 0.526
##  8 education secondary  5476 0.491
##  9 deposit   yes        5289 0.474
## 10 housing   yes        5281 0.473
## # ℹ 36 more rows
…
10.7 10.7 Comparación
global de modelos

all_metrics <- bind_rows(
  metrics_with_duration,
  metrics_without_duration
)

all_metrics |> 
  arrange(.metric, desc(.estimate))

## # A tibble: 32 × 4
##    .metric  .estimator .estimate model                         
##    <chr>    <chr>          <dbl> <chr>                         
##  1 accuracy binary         0.842 random_forest_with_duration   
##  2 accuracy binary         0.824 logistic_with_duration        
##  3 accuracy binary         0.817 svm_rbf_with_duration         
##  4 accuracy binary         0.784 tree_with_duration            
##  5 accuracy binary         0.726 random_forest_without_duration
##  6 accuracy binary         0.713 logistic_without_duration     
##  7 accuracy binary         0.701 svm_rbf_without_duration      
##  8 accuracy binary         0.657 tree_without_duration         
##  9 roc_auc  binary         0.910 random_forest_with_duration   
## 10 roc_auc  binary         0.897 logistic_with_duration        
## # ℹ 22 more rows
…
